[{
  "_id": {
    "$oid": "619142e5b789581e71a9b23a"
  },
  "customerId": "618d48db72cd7c3674971a22",
  "products": [
    {
      "_id": "618d21c52c7cfa49496b4cd7",
      "itemNo": 1,
      "enabled": true,
      "name": "Gold ring",
      "currentPrice": 1000,
      "previousPrice": 2000,
      "categories": "rings",
      "imageUrls": "https://res.cloudinary.com/teamhands/image/upload/v1635863459/Jewelry%20shop/products/rings/2_u4flbx.png",
      "quantity": 3,
      "color": "gold",
      "sizes": "all",
      "productUrl": "",
      "brand": "Zarina",
      "manufacturer": "Zarina",
      "manufacturerCountry": "Ukraine",
      "seller": "Zarina",
      "date": 2021,
      "description": "Lorem ipsum dolor, sit amet consectetur adipisicing elit. Illo suscipit debitis voluptas. Est possimus autem, nobis assumenda tempora quisquam cum inventore",
      "cartQuantity": 1
    }
  ],
  "date": ""
},{
  "_id": {
    "$oid": "619147032b9a531e7884354d"
  },
  "products": [
    {
      "_id": {
        "$oid": "619147332b9a531e78843556"
      },
      "product": {
        "$oid": "618d21c52c7cfa49496b4cd7"
      },
      "cartQuantity": 1
    }
  ],
  "customerId": {
    "$oid": "618d48db72cd7c3674971a22"
  },
  "date": {
    "$date": "2021-11-14T17:27:31.142Z"
  },
  "__v": 0
}]